w=4, tasks=4, tamanho da base=10000000
Tempo de busca: 21.7432

w=4, tasks=4, tamanho da base=500000000
Tempo de busca: 1345.7

w=4, tasks=4, tamanho da base=500000000
Tempo de busca: 1220.13

w=4, tasks=4, tamanho da base=500000000
Tempo de busca: 1223.52

w=4, tasks=4, tamanho da base=500000000
Tempo de busca: 1217.69

w=4, tasks=4, tamanho da base=500000000
Tempo de busca: 1219.58

w=4, tasks=4, tamanho da base=500000000
Tempo de busca: 1241.83

w=4, tasks=4, tamanho da base=500000000
Tempo de busca: 1218.51

w=4, tasks=4, tamanho da base=500000000
Tempo de busca: 1231.66

w=4, tasks=4, tamanho da base=500000000
Tempo de busca: 1234.2

w=4, tasks=4, tamanho da base=500000000
Tempo de busca: 1225.8

